Effects of vaccinations on seropositivity and symptoms prevalences
…
Using the 2 datasets and the 2 functions defined above to generate the dataset for our analysis:

> (vacc_data <- names(fig1) %>%
+   setdiff(c("FlockID", "WEEKNO")) %>% 
+   lapply(g) %>% 
+   lapply(function(x) dplyr::bind_rows(lapply(x, f))) %>% 
+   purrr::reduce(dplyr::left_join, c("FlockID", "WEEKNO")) %>% 
+   dplyr::left_join(viparc, "FlockID") %>% 
+   dplyr::select(farm, flock, week, respiratory, diarrhoea, cns, sudden_death, ends_with("vaccinated")) %>% 
+   dplyr::mutate_at(dplyr::vars(dplyr::ends_with("vaccinated")), as.logical) %>% 
+   tibble::as_tibble())
# A tibble: 83,062 x 13
   farm  flock  week respiratory diarrhoea cns   sudden_death Fowl.Pox.vaccin HPAI.vaccinated NDV.vaccinated IBV.vaccinated
   <chr> <int> <int> <lgl>       <lgl>     <lgl> <lgl>        <lgl>            <lgl>           <lgl>          <lgl>         
 1 75-0     1     1 FALSE       FALSE     FALSE TRUE         FALSE            FALSE           FALSE          FALSE         
 2 75-0     1     2 FALSE       FALSE     FALSE FALSE        FALSE            FALSE           FALSE          FALSE         
 3 75-0     1     3 FALSE       FALSE     FALSE TRUE         FALSE            FALSE           FALSE          FALSE         
 4 75-0     1     4 FALSE       FALSE     FALSE FALSE        FALSE            FALSE           FALSE          FALSE         
 5 75-0     1     5 FALSE       FALSE     FALSE FALSE        FALSE            FALSE           FALSE          FALSE         
 6 75-0     1     6 FALSE       FALSE     FALSE TRUE         FALSE            FALSE           FALSE          FALSE         
 7 75-0     1     7 FALSE       FALSE     FALSE FALSE        FALSE            FALSE           FALSE          FALSE         
 8 75-0     1     8 FALSE       FALSE     FALSE TRUE         FALSE            FALSE           FALSE          FALSE         
 9 75-0     1     9 FALSE       FALSE     FALSE FALSE        FALSE            FALSE           FALSE          FALSE         
10 75-0     1    10 FALSE       FALSE     FALSE FALSE        FALSE            FALSE           FALSE          FALSE         
#  with 83,052 more rows, and 2 more variables: IBD.vaccinated <lgl>, PM.vaccinated <lgl>
…
